COMPANY,BUY ORDER NUMBER,QUANTITY,SELL ORDER NUMBER,PRICE,DATE,BUY CDS NUMBER,SELL CDS NUMBER
ZWFIN0000001,ZWFM1010,99,ZWFM1011,1.05,10/28/16,00000010392156989,00000000021134768
ZWFIN0000001,ZWFM1007,500,ZWFM1010,1.05,10/28/16,00000010372149547,00000010562164337
ZWFIN0000001,ZWFM1011,490,ZWFM1012,1.05,10/28/16,00000010492144986,00000010562164337
ZWFIN0000001,ZWFM1007,90,ZWFM1012,1.05,10/28/16,00000010372149547,00000010562164337
