COMPANY,BUY ORDER NUMBER,QUANTITY,SELL ORDER NUMBER,PRICE,DATE,BUY CDS NUMBER,SELL CDS NUMBER
SUNZW,SUNM1002,100,SUNM1001,0.9500,11/30/16,000000000434040,000000110522909
TESTCOMP1,TESM1017,113,TESM1040,0.5720,11/30/16,000000000281,00000000078212
TESTCOMP1,TESM1017,92,TESM1041,0.5720,11/30/16,000000000281,000000000272019
TESTCOMP1,TESM1013,22,TESM1041,0.5700,11/30/16,000000000433292,000000000272019
TESTCOMP1,TESM1013,116,TESM1042,0.5700,11/30/16,000000000433292,0000000003867
TESTCOMP1,TESM1013,21,TESM1043,0.5700,11/30/16,000000000433292,000000000343358
TESTCOMP1,TESM1065,99,TESM1043,0.5700,11/30/16,000000000390526,000000000343358
TESTCOMP1,TESM1065,125,TESM1044,0.5700,11/30/16,000000000390526,000000000197
TESTCOMP1,TESM1065,129,TESM1045,0.5700,11/30/16,000000000390526,00000000048038
TESTCOMP1,TESM1065,135,TESM1046,0.5700,11/30/16,000000000390526,00000000028673
TESTCOMP1,TESM1065,121,TESM1047,0.5700,11/30/16,000000000390526,00000000026204
TESTCOMP1,TESM1072,20,TESM1047,0.5700,11/30/16,000000000290718,00000000026204
TESTCOMP1,TESM1072,163,TESM1048,0.5700,11/30/16,000000000290718,000000000194174
TESTCOMP1,TESM1072,165,TESM1049,0.5700,11/30/16,000000000290718,000000000140899
TESTCOMP1,TESM1072,169,TESM1050,0.5700,11/30/16,000000000290718,000000000265969
TESTCOMP1,TESM1072,55,TESM1052,0.5700,11/30/16,000000000290718,000000000120472
TESTCOMP1,TESM1022,57,TESM1052,0.5600,11/30/16,000000000337722,000000000120472
TESTCOMP1,TESM1074,61,TESM1052,0.5400,11/30/16,00000000033561,000000000120472
TESTCOMP1,TESM1074,345,TESM1053,0.5400,11/30/16,00000000033561,000000000211028
TESTCOMP1,TESM1074,199,TESM1054,0.5400,11/30/16,00000000033561,000000000392561
TESTCOMP1,TESM1074,21,TESM1056,0.5400,11/30/16,00000000033561,00000000024
TESTCOMP1,TESM1074,26,TESM1057,0.5400,11/30/16,00000000033561,00000000059153
TESTCOMP1,TESM1074,50,TESM1059,0.5400,11/30/16,00000000033561,00000000027405
TESTCOMP1,TESM1074,66,TESM1061,0.5400,11/30/16,00000000033561,000000000111627
TESTCOMP1,TESM1074,53,TESM1063,0.5400,11/30/16,00000000033561,000000000265535
TESTCOMP1,TESM1074,39,TESM1064,0.5400,11/30/16,00000000033561,000000000407488
TESTCOMP1,TESM1074,120,TESM1066,0.5400,11/30/16,00000000033561,00000000098892
TESTCOMP1,TESM1078,477,TESM1066,0.5400,11/30/16,00000011196509,00000000098892
TESTCOMP1,TESM1078,88,TESM1067,0.5400,11/30/16,00000011196509,000000000212679
TESTCOMP1,TESM1078,202,TESM1069,0.5400,11/30/16,00000011196509,000000000164747
TESTCOMP1,TESM1078,230,TESM1071,0.5400,11/30/16,00000011196509,000000000232017
TESTCOMP1,TESM1078,3,TESM1051,0.5400,11/30/16,00000011196509,000000000347388
TESTCOMP1,TESM1003,45,TESM1051,0.5300,11/30/16,000000000265,000000000347388
TESTCOMP1,TESM1077,406,TESM1051,0.5300,11/30/16,00000011206904,000000000347388
TESTCOMP1,TESM1077,457,TESM1062,0.5300,11/30/16,00000011206904,00000000017
TESTCOMP1,TESM1077,467,TESM1068,0.5300,11/30/16,00000011206904,000000000225959
TESTCOMP1,TESM1077,571,TESM1058,0.5300,11/30/16,00000011206904,00000000054372
TESTCOMP1,TESM1077,234,TESM1073,0.5300,11/30/16,00000011206904,000000000225223
TESTCOMP1,TESM1077,2865,TESM1039,0.5300,11/30/16,00000011206904,000000000406970
TESTCOMP1,TESM1076,7514,TESM1039,0.5220,11/30/16,00000011136369,000000000406970
TESTCOMP1,TESM1079,20,TESM1070,0.5600,11/30/16,00000000079456,000000000215503
